<svg xmlns="http://www.w3.org/2000/svg" width="2259.508" height="5379.765" viewBox="0 0 2259.508 5379.765">
  <g id="Lines" transform="translate(-46.164 107.495)">
    <path id="Path_275" data-name="Path 275" d="M1684.745-107.085C1525.47,4.4,1200.511,207.707,1188.172,401.728c-3.264,51.317-2.2,121.576-15.087,171.357-16.138,62.362-56.036,93.407-103.925,136.489C858.831,898.791,610.08,1038.9,374.105,1194.97c-108.642,71.852-224.763,163.318-238.154,292.88-17.373,168.107,50.74,172.8,167.006,295.448,136.433,143.926,237.359,470.357,315.575,652.6,66.932,155.946,211.576,295.681,339.16,407.582,173.145,151.863,799.146,138.478,632.074,373.694-13.893,19.56-33.553,50.61-51.742,66.255-82.771,71.2-192.64,100.475-298.678,126.472-310.494,76.124-590.916,21.384-905.75,76.89-26.815,4.728-122.267,20.83-152.17,81.7-48.163,98.043-27.229,262.074-22.469,290.043,32.681,192,198.812,264.577,385.735,369.785s404.519,139.434,617.457,165.248c82.521,10,153.412,17.7,229.81,49.878,71.038,29.923,113.516,115.378,94.481,190.073-9.927,38.957-34.422,75.8-29.863,115.747,6.3,55.2,63.844,88.3,116.381,106.371a750.947,750.947,0,0,0,387.344,26.513" fill="none" stroke="#fff" stroke-miterlimit="10" stroke-width="1" opacity="0.9"/>
    <path id="Path_276" data-name="Path 276" d="M1683.539-101.272c-118.087,86-327.571,226.73-425.355,371.433-34.225,50.362-49.763,99.69-52.231,150.508-2.387,52.785-2.2,122.4-16.079,172.2-17.063,61.813-57.549,93.551-106.091,136.235-36.981,32.523-75.37,63.465-114.663,93.306C783.744,963.676,573.412,1077.9,376.672,1202.774c-107.41,68.177-221.538,157.682-237.6,283.354-11.43,89.415,3.032,131.754,35.663,172.234,26.232,32.542,65.178,63.869,112.784,117.9,85.507,97.043,158.463,273.655,224.1,429.9,32.41,76.517,60.432,146.722,89.106,203.5,76.741,151.965,229.958,289.859,364.87,403.2,70.121,58.909,199.3,96.38,326.342,132.551,137.4,38.813,262.085,85.158,312.8,150.342,26.493,34.049,39.373,67.225,3.7,119.844-13.916,20.524-33.606,51.6-52.369,67.861-42.5,36.795-92.779,62.438-145.662,81.955-51.725,19.078-106.141,32.555-159.724,44.985-129.111,30.046-253.744,38.087-377.653,41.773-122.2,3.693-250.569-2.424-375.736,7.556-56.237,4.529-113.264,10.828-170.618,22.443-20.688,4.189-72.713,14.487-112.52,41.476-17.065,11.634-31.658,26.4-40.5,45.06-47.085,98.518-24.126,261.4-16.927,295.578,9.024,42.843,22.606,80.312,41.807,113.129,68.852,117.738,203.231,184.352,350.944,265.921,188.239,104.114,406.871,134.235,620.258,158.483,84.591,9.4,158.345,17.046,236.975,49.086q6.391,2.6,12.5,5.729c30.756,15.719,56.451,41.661,70.787,72.991,13.05,28.514,16.625,59.6,12.01,89.892a167.028,167.028,0,0,1-5.4,23.761c-8.806,28.718-24.568,56.779-30.233,86.069a102.237,102.237,0,0,0-1.411,32.357c4.125,32.989,25.907,58.644,53.926,77.83,20.046,13.736,43.271,24.248,65.726,32.26q26.834,9.563,54.255,17.254a801.35,801.35,0,0,0,100.732,22.017c80.1,11.884,162.43,9.572,242.284-4.563" fill="none" stroke="#fff" stroke-miterlimit="10" stroke-width="1" opacity="0.9"/>
    <path id="Path_277" data-name="Path 277" d="M1682.334-95.459c-118.174,89.4-327.829,238.1-418.385,385-31.461,51.037-38.631,98.709-40.215,150.072-1.672,54.247-2.309,123.189-17.072,173.034-18.132,61.22-59.061,93.7-108.255,135.98-37.458,32.207-76.574,62.729-116.608,92.19C794.618,979.445,577.768,1089.85,379.24,1210.578,273.105,1275.12,160.962,1362.6,142.186,1484.406c-13.182,85.518-.973,127.275,27.642,167.48,23.1,32.45,58.765,63.923,102.246,117.334,79.36,97.482,149.172,271.68,217.387,421.566,33.609,73.847,61.923,138.88,93.454,192.64,86.894,148.15,248.412,283.971,390.58,398.814,75.67,61.126,206.352,102.439,334.45,142.63,137.765,42.658,252.154,102.067,303.762,173.461,25.931,35.871,49.868,62.479,15.4,115.689-13.928,21.5-33.659,52.587-52.995,69.467-43.116,37.554-94.831,63.546-148.832,83.012-52.937,19.061-108.465,32.375-163.262,44.4-131.4,29-258.851,35.819-385.484,39.334-122.443,3.5-257.847-7.141-383,3.13-57.523,4.805-115.87,11.122-173.776,24.189-22.563,5.091-74.064,16.646-113.567,44.66-17.135,12.152-31.482,27.572-40.3,46.71-45.7,99.136-21.144,260.717-11.386,301.114,10.476,43.372,24.3,81.727,43.714,115,70.618,121.129,206.317,192.179,356.054,273.316,189.554,103.02,409.174,129.512,623.058,151.719,86.642,9,163.279,16.4,244.14,48.293q6.6,2.6,12.932,5.7c31.883,15.6,59.5,41.718,73.018,74.267,12.307,29.618,12.81,60.784,6.173,90.955a195.476,195.476,0,0,1-6.808,23.752c-10.337,28.883-26.758,57.584-32.337,87.827a104.522,104.522,0,0,0-1.088,33.277c4.57,33.734,26.968,60.34,55.565,80.14,20.559,14.251,44.294,25.162,67.356,33.67,18.323,6.746,36.892,12.834,55.521,18.487,33.855,10.276,67.952,19.146,102.735,25.169,81.864,14.175,166.671,12.252,248.944-.752" fill="none" stroke="#fff" stroke-miterlimit="10" stroke-width="1" opacity="0.9"/>
    <path id="Path_278" data-name="Path 278" d="M1681.129-89.645c-118.26,92.809-328.29,249.309-411.415,398.562-28.769,51.657-27.4,97.733-28.2,149.636-.858,55.716-2.349,124-18.065,173.872-19.111,60.651-60.574,93.84-110.42,135.726-37.935,31.889-77.84,61.906-118.554,91.072C805.2,994.813,582.192,1101.855,381.808,1218.381c-104.817,60.953-214.975,146.329-236.505,264.3-14.893,81.608-4.974,122.831,19.621,162.725,19.965,32.387,52.333,64.048,91.709,116.772,73.219,98.039,140.138,269.61,210.673,413.235,34.933,71.131,63.576,131.036,97.8,181.775,97.417,144.426,266.924,278.026,416.291,394.431,81.246,63.318,213.287,108.827,342.557,152.71,138.016,46.852,242.288,118.9,294.721,196.579,25.411,37.647,60.4,57.77,27.1,111.535-13.93,22.487-33.712,53.574-53.622,71.072-43.727,38.314-96.884,64.653-152,84.069-54.149,19.044-110.789,32.2-166.8,43.807-133.68,27.949-263.959,33.552-393.315,36.9-122.684,3.315-265.125-11.858-390.27-1.3-58.808,5.081-118.461,11.528-176.935,25.935-24.435,6.021-75.375,18.865-114.613,47.844-17.189,12.7-31.34,28.729-40.108,48.36-44.51,99.659-18.272,260.037-5.845,306.65,11.713,43.936,25.994,83.142,45.621,116.867,72.383,124.52,209.4,200.007,361.163,280.711,190.871,101.926,411.514,124.486,625.859,144.955,88.708,8.472,168.213,15.745,251.306,47.5q6.8,2.592,13.36,5.67c33.011,15.479,62.544,41.776,75.249,75.544,11.564,30.721,9,61.964.337,92.017a236.378,236.378,0,0,1-8.215,23.743c-11.867,29.048-28.947,58.389-34.44,89.584a106.788,106.788,0,0,0-.765,34.2c5.014,34.477,28.028,62.035,57.2,82.449,21.071,14.766,45.317,26.076,68.987,35.079,18.756,7.118,37.77,13.579,56.786,19.721,34.565,11.167,69.206,21.324,104.738,28.32,83.628,16.466,170.913,14.933,255.6,3.059" fill="none" stroke="#fff" stroke-miterlimit="10" stroke-width="1" opacity="0.9"/>
    <path id="Path_279" data-name="Path 279" d="M1679.924-83.832c-118.347,96.214-328.77,260.493-404.445,412.127-26.084,52.267-16.155,96.759-16.182,149.2-.03,57.186-2.38,124.8-19.057,174.71-20.079,60.083-62.086,93.984-112.586,135.471-38.411,31.573-79.056,61.149-120.5,89.955-191.135,132.858-420.472,236.292-622.78,348.554C280.919,1283.594,172.754,1366.8,148.42,1480.962c-16.559,77.686-8.978,118.426,11.6,157.971,16.836,32.355,45.873,64.248,81.172,116.209,67.069,98.726,131.135,267.539,203.96,404.9,36.271,68.415,65.389,123.165,102.147,170.911C655.62,2471.664,832.779,2602.985,989.3,2721c86.846,65.484,220.3,114.954,350.666,162.79,138.35,50.765,232.488,135.662,285.679,219.7,24.931,39.389,70.976,53.092,38.8,107.381-13.921,23.486-33.765,54.562-54.249,72.677-44.339,39.075-98.936,65.762-155.172,85.127-55.361,19.026-113.113,32.015-170.338,43.218-135.965,26.9-269.067,31.284-401.146,34.457-122.925,3.124-272.4-16.577-397.537-5.723-60.094,5.357-121.038,12.019-180.094,27.682-26.3,6.977-76.682,21.092-115.659,51.027-17.24,13.241-31.2,29.883-39.912,50.011-43.343,100.168-15.5,259.375-.3,312.185,12.815,44.529,27.688,84.558,47.529,118.736,74.147,127.91,212.488,207.834,366.272,288.106,192.186,100.832,413.859,119.42,628.66,138.192,90.774,7.932,173.145,15.093,258.471,46.707q7.009,2.588,13.788,5.641c34.139,15.359,65.591,41.833,77.48,76.82,10.822,31.825,5.181,63.145-5.5,93.08-2.78,7.844-6,15.776-9.621,23.734-13.4,29.213-31.136,59.193-36.543,91.342a109.058,109.058,0,0,0-.443,35.119c5.459,35.221,29.089,63.731,58.844,84.759,21.583,15.281,46.341,26.99,70.617,36.489,19.19,7.489,38.649,14.323,58.052,20.953,35.275,12.059,70.46,23.5,106.741,31.473,85.392,18.757,175.154,17.613,262.264,6.87" fill="none" stroke="#fff" stroke-miterlimit="10" stroke-width="1" opacity="0.9"/>
    <path id="Path_280" data-name="Path 280" d="M1678.719-78.019c-118.433,99.62-329.272,271.65-397.475,425.692-23.407,52.868-4.9,95.787-4.166,148.764.81,58.658-2.4,125.613-20.05,175.547-21.035,59.519-63.6,94.129-114.75,135.218-38.888,31.255-80.27,60.395-122.444,88.838-192.978,130.145-428.591,230.023-632.89,337.949-102.058,53.914-208.21,134.879-235.407,245.251-18.174,73.755-13,114.065,3.578,153.217,13.7,32.359,39.371,64.528,70.635,115.646,60.885,99.553,122.163,265.465,197.246,396.574,37.623,65.7,67.351,115.241,106.493,160.046,119.6,136.906,304.077,265.986,467.711,385.663,92.465,67.627,227.319,121.061,358.774,172.869,138.688,54.659,222.756,152.376,276.637,242.815,24.487,41.1,81.585,48.44,50.5,103.226-13.9,24.5-33.818,55.55-54.876,74.283-44.951,39.835-100.989,66.869-158.342,86.183-56.574,19.01-115.437,31.836-173.876,42.629-138.25,25.853-274.174,29.018-408.977,32.019-123.166,2.935-279.681-21.294-404.8-10.149-61.379,5.633-123.6,12.578-183.252,29.428-28.17,7.958-77.985,23.328-116.706,54.212-17.29,13.79-31.069,31.034-39.715,51.66-42.2,100.665-12.828,258.739,5.236,317.721,13.827,45.146,29.382,85.973,49.436,120.6,75.913,131.3,215.574,215.661,371.382,295.5,193.5,99.737,416.21,114.316,631.46,131.427,92.844,7.38,178.079,14.442,265.636,45.915q7.216,2.582,14.217,5.611c35.266,15.239,68.638,41.89,79.711,78.1,10.079,32.927,1.366,64.325-11.336,94.141-3.3,7.809-7,15.736-11.028,23.726-14.926,29.378-33.326,60-38.646,93.1a111.323,111.323,0,0,0-.12,36.04c5.9,35.965,30.149,65.426,60.482,87.068,22.1,15.8,47.365,27.9,72.249,37.9,19.623,7.859,39.526,15.067,59.316,22.186,35.986,12.949,71.714,25.681,108.745,34.624,87.156,21.048,179.4,20.294,268.924,10.681" fill="none" stroke="#fff" stroke-miterlimit="10" stroke-width="1" opacity="0.9"/>
    <path id="Path_281" data-name="Path 281" d="M1677.513-72.205c-118.519,103.025-329.8,282.784-390.5,439.256-20.74,53.461,6.371,94.814,7.85,148.328,1.662,60.13-2.415,126.425-21.042,176.385-21.982,58.956-65.111,94.274-116.915,134.963-39.365,30.939-81.48,59.647-124.389,87.721-194.806,127.453-436.644,223.837-643,327.345-100.621,50.471-204.73,129.128-234.857,235.725-19.733,69.819-17.042,109.749-4.445,148.462,10.544,32.4,32.815,64.89,60.1,115.085,54.64,100.525,113.226,263.382,190.533,388.242,38.992,62.978,69.443,107.25,110.84,149.182,131.242,132.941,322.7,259.9,493.421,381.279,98.1,69.748,234.341,127.15,366.881,182.949,139.032,58.531,213.092,169.046,267.595,265.933,24.075,42.8,92.229,43.811,62.2,99.071-13.864,25.512-33.871,56.538-55.5,75.889-45.562,40.595-103.042,67.977-161.513,87.24-57.785,18.993-117.761,31.656-177.413,42.04-140.534,24.8-279.282,26.75-416.808,29.58-123.407,2.746-286.959-26.011-412.071-14.575-62.665,5.909-126.148,13.19-186.411,31.175-30.028,8.962-79.282,25.569-117.752,57.4a134.607,134.607,0,0,0-39.519,53.31c-41.078,101.152-10.241,258.131,10.778,323.258,14.776,45.783,31.075,87.388,51.342,122.473,77.678,134.692,218.66,223.488,376.491,302.9,194.817,98.643,418.565,109.178,634.262,124.663,94.915,6.814,183.012,13.791,272.8,45.123q7.423,2.577,14.645,5.581c36.394,15.118,71.685,41.948,81.942,79.373,9.336,34.031-2.448,65.5-17.173,95.2-3.829,7.772-8,15.695-12.434,23.717-16.456,29.543-35.515,60.8-40.748,94.857a113.585,113.585,0,0,0,.2,36.961c6.348,36.709,31.21,67.122,62.121,89.378,22.609,16.311,48.388,28.818,73.879,39.309,20.057,8.23,40.405,15.811,60.582,23.418,36.7,13.841,72.968,27.861,110.747,37.776,88.921,23.34,183.638,22.975,275.585,14.493" fill="none" stroke="#fff" stroke-miterlimit="10" stroke-width="1" opacity="0.9"/>
    <path id="Path_282" data-name="Path 282" d="M1676.308-66.392c-118.606,106.431-330.361,293.9-383.534,452.821-18.083,54.048,17.65,93.842,19.866,147.891,2.526,61.6-2.419,127.24-22.035,177.224-22.916,58.4-66.623,94.418-119.079,134.709-39.842,30.621-82.686,58.9-126.335,86.6C848.573,1057.639,600.559,1150.6,392.08,1249.6c-99.15,47.08-201.172,123.369-234.308,226.2-21.231,65.882-21.127,105.475-12.466,143.708,7.358,32.479,26.187,65.33,49.56,114.522,48.3,101.644,104.324,261.288,183.819,379.912,40.379,60.252,71.645,99.174,115.187,138.317,143.2,128.738,341.354,253.785,519.131,376.9,103.752,71.848,241.371,133.222,374.99,193.028,139.383,62.386,203.491,185.682,258.553,289.051,23.69,44.475,102.9,39.2,73.9,94.917-13.814,26.538-33.923,57.526-56.129,77.494-46.174,41.355-105.094,69.085-164.683,88.3-59,18.976-120.085,31.476-180.951,41.451-142.819,23.756-284.39,24.483-424.638,27.141-123.649,2.557-294.238-30.728-419.34-19-63.949,6.184-128.682,13.845-189.568,32.921-31.88,9.989-80.575,27.819-118.8,60.579a138.8,138.8,0,0,0-39.323,54.961c-39.979,101.628-7.737,257.553,16.319,328.793,15.68,46.437,32.769,88.8,53.25,124.341,79.442,138.084,221.744,231.316,381.6,310.293,196.133,97.549,420.923,104.006,637.062,117.9,96.987,6.234,187.946,13.14,279.966,44.33q7.631,2.572,15.074,5.552c37.522,15,74.732,42,84.173,80.65,8.593,35.134-6.263,66.685-23.009,96.266-4.354,7.735-9,15.654-13.841,23.708-17.986,29.708-37.7,61.607-42.851,96.615a115.862,115.862,0,0,0,.524,37.881c6.793,37.453,32.271,68.818,63.761,91.688,23.121,16.826,49.412,29.732,75.51,40.719,20.49,8.6,41.283,16.555,61.847,24.651,37.406,14.732,74.222,30.039,112.75,40.928,90.685,25.63,187.88,25.655,282.245,18.3" fill="none" stroke="#fff" stroke-miterlimit="10" stroke-width="1" opacity="0.9"/>
    <path id="Path_283" data-name="Path 283" d="M1675.1-60.579c-118.692,109.836-330.955,305-376.564,466.386-15.438,54.629,28.939,92.869,31.882,147.455,3.4,63.074-2.416,128.057-23.027,178.062-23.841,57.841-68.136,94.562-121.245,134.454-40.318,30.3-83.889,58.163-128.279,85.487C859.453,1073.4,605.31,1163.023,394.648,1257.4,297,1301.146,197.125,1375.012,160.889,1474.073c-22.661,61.952-25.267,101.235-20.487,138.955,4.128,32.583,19.473,65.845,39.023,113.959,41.812,102.906,95.457,259.179,177.1,371.581,41.782,57.52,73.932,91.007,119.534,127.453,155.443,124.236,360.024,247.635,544.841,372.511,109.414,73.929,248.407,139.278,383.1,203.108,139.741,66.223,193.952,202.288,249.511,312.169,23.33,46.142,113.609,34.607,85.6,90.762-13.751,27.572-33.976,58.515-56.756,79.1-46.786,42.115-107.147,70.193-167.853,89.354-60.209,18.96-122.409,31.3-184.489,40.863-145.1,22.707-289.5,22.215-432.469,24.7-123.891,2.367-301.516-35.446-426.607-23.427-65.235,6.46-131.2,14.535-192.727,34.668-33.724,11.036-81.863,30.073-119.845,63.762a143.117,143.117,0,0,0-39.127,56.611c-38.9,102.1-5.309,257.006,21.86,334.329,16.552,47.107,34.462,90.218,55.157,126.21,81.208,141.474,224.83,239.143,386.709,317.689,197.449,96.455,423.283,98.8,639.863,111.134,99.061,5.641,192.88,12.489,287.132,43.538q7.836,2.568,15.5,5.522c38.649,14.878,77.778,42.062,86.4,81.926,7.85,36.238-10.077,67.866-28.846,97.329-4.878,7.7-10,15.613-15.247,23.7-19.516,29.873-39.893,62.412-44.954,98.373a118.149,118.149,0,0,0,.847,38.8c7.237,38.2,33.331,70.513,65.4,94,23.633,17.341,50.435,30.646,77.14,42.129,20.925,8.972,42.162,17.3,63.113,25.884,38.116,15.622,75.475,32.217,114.753,44.079,92.449,27.922,192.121,28.336,288.9,22.115" fill="none" stroke="#fff" stroke-miterlimit="10" stroke-width="1" opacity="0.9"/>
    <path id="Path_284" data-name="Path 284" d="M1673.9-54.765C1555.119,58.476,1342.313,261.323,1304.3,425.185c-12.8,55.207,40.238,91.9,43.9,147.019,4.286,64.545-2.4,128.878-24.02,178.9-24.757,57.29-69.649,94.706-123.41,134.2-40.795,29.987-85.09,57.427-130.225,84.369-200.2,119.5-460.428,205.89-673.333,295.531-96.115,40.469-193.772,111.871-233.209,207.147-24.021,58.034-29.471,97.011-28.509,134.2.846,32.7,12.66,66.423,28.486,113.4C199.122,1824.242,250.61,1977,334.375,2083.2c43.2,54.776,76.28,82.743,123.88,116.588,167.909,119.388,378.712,241.457,570.552,368.127,115.087,75.992,255.451,145.319,391.2,213.188,140.108,70.045,184.472,218.872,240.469,335.287,22.993,47.8,124.343,30.025,97.3,86.607-13.673,28.612-34.029,59.5-57.383,80.706-47.4,42.875-109.2,71.3-171.023,90.411-61.422,18.943-124.733,31.117-188.027,40.274-147.388,21.659-294.605,19.948-440.3,22.263-124.132,2.178-308.794-40.163-433.874-27.853-66.521,6.736-133.714,15.253-195.885,36.414-35.561,12.1-83.146,32.333-120.892,66.946a147.5,147.5,0,0,0-38.93,58.261c-37.841,102.559-2.955,256.489,27.4,339.865,17.4,47.789,36.156,91.634,57.065,128.079,82.972,144.865,227.915,246.97,391.818,325.084,198.764,95.361,425.644,93.571,642.664,104.371,101.134,5.032,197.812,11.837,294.3,42.744q8.042,2.563,15.93,5.493c39.777,14.758,80.825,42.12,88.635,83.2,7.107,37.341-13.892,69.046-34.682,98.391-5.4,7.662-11,15.572-16.654,23.69-21.046,30.038-42.083,63.216-47.057,100.13a120.442,120.442,0,0,0,1.17,39.723c7.682,38.941,34.391,72.209,67.039,96.307,24.145,17.856,51.458,31.56,78.771,43.539,21.358,9.343,43.039,18.043,64.378,27.116,38.826,16.514,76.729,34.4,116.756,47.232,94.213,30.213,196.363,31.016,295.565,25.925" fill="none" stroke="#fff" stroke-miterlimit="10" stroke-width="1" opacity="0.9"/>
    <path id="Path_285" data-name="Path 285" d="M1672.692-48.952c-118.864,116.647-332.251,327.173-362.623,493.514-10.185,55.784,51.544,90.921,55.915,146.584,5.183,66.014-2.383,129.7-25.013,179.738-25.662,56.742-71.16,94.851-125.574,133.945-41.272,29.671-86.288,56.7-132.17,83.253-201.977,116.9-468.243,200.153-683.444,284.926-94.56,37.25-189.907,106.164-232.66,197.621-25.308,54.139-33.741,92.784-36.53,129.446-2.5,32.819,5.733,67.047,17.949,112.834,28.223,105.782,77.832,254.893,163.678,354.92,44.644,52.019,78.667,74.385,128.227,105.724,180.542,114.166,397.413,235.254,596.261,363.743,120.771,78.038,262.5,151.345,399.314,223.267,140.483,73.853,175.046,235.438,231.427,358.406,22.675,49.454,135.1,25.454,109.005,82.452-13.58,29.659-34.083,60.491-58.01,82.312-48.009,43.635-111.252,72.408-174.193,91.468-62.634,18.926-127.057,30.937-191.565,39.685-149.672,20.61-299.713,17.68-448.131,19.824-124.373,1.989-316.073-44.88-441.141-32.28-67.806,7.013-136.214,16-199.044,38.161-37.389,13.19-84.423,34.6-121.939,70.13a151.974,151.974,0,0,0-38.733,59.911c-36.8,103.014-.666,256,32.941,345.4,18.227,48.483,37.85,93.049,58.972,129.948,84.737,148.256,231,254.8,396.928,332.479,200.08,94.267,428.006,88.312,645.464,97.607,103.209,4.411,202.746,11.186,301.462,41.952q8.249,2.559,16.359,5.463c40.905,14.638,83.872,42.177,90.866,84.479,6.364,38.445-17.707,70.226-40.519,99.453-5.928,7.626-12,15.532-18.06,23.682-22.576,30.2-44.272,64.021-49.16,101.888a122.7,122.7,0,0,0,1.493,40.644c8.126,39.684,35.451,73.9,68.678,98.616,24.658,18.371,52.482,32.474,80.4,44.948,21.792,9.714,43.918,18.788,65.644,28.35,39.536,17.4,77.983,36.574,118.759,50.383,95.977,32.5,200.6,33.7,302.225,29.737" fill="none" stroke="#fff" stroke-miterlimit="10" stroke-width="1" opacity="0.9"/>
    <path id="Path_286" data-name="Path 286" d="M1671.487-43.139C1552.536,76.914,1338.532,295.119,1315.834,463.94c-7.577,56.36,62.859,89.945,67.931,146.148,6.09,67.482-2.355,130.531-26.005,180.576-26.56,56.2-72.673,94.995-127.74,133.69-41.748,29.354-87.482,55.973-134.115,82.136C892.165,1120.8,619.9,1201.053,402.351,1280.812c-92.986,34.091-185.916,100.515-232.11,188.095-26.52,50.278-38.075,88.534-44.552,124.692-5.9,32.916-1.317,67.695,7.411,112.271,21.016,107.329,69.071,252.7,156.964,346.589,46.1,49.246,81.073,65.935,132.574,94.86,193.289,108.559,416.127,229.028,621.972,359.359,126.461,80.069,269.566,157.359,407.422,233.347,140.867,77.648,165.672,251.988,222.385,381.523,22.374,51.1,145.888,20.892,120.7,78.3-13.471,30.71-34.135,61.479-58.636,83.917-48.621,44.4-113.3,73.516-177.364,92.526-63.845,18.909-129.381,30.757-195.1,39.1-151.958,19.562-304.821,15.413-455.963,17.385-124.614,1.8-323.351-49.6-448.408-36.706-69.092,7.289-138.7,16.759-202.2,39.908-39.21,14.294-85.695,36.867-122.985,73.314a156.511,156.511,0,0,0-38.537,61.561c-35.778,103.463,1.559,255.546,38.483,350.936,19.039,49.188,39.543,94.464,60.878,131.817,86.5,151.646,234.087,262.625,402.037,339.874,201.4,93.173,430.368,83.027,648.266,90.843,105.283,3.777,207.679,10.535,308.627,41.159q8.454,2.555,16.786,5.434c42.034,14.517,86.92,42.234,93.1,85.756,5.621,39.547-21.521,71.406-46.356,100.515-6.452,7.59-13,15.491-19.466,23.673-24.106,30.368-46.461,64.826-51.263,103.646a125.012,125.012,0,0,0,1.815,41.564c8.571,40.429,36.513,75.6,70.318,100.927,25.17,18.885,53.505,33.387,82.032,46.357,22.225,10.085,44.8,19.532,66.909,29.582,40.246,18.3,79.236,38.753,120.762,53.536,97.741,34.8,204.846,36.377,308.885,33.547" fill="none" stroke="#fff" stroke-miterlimit="10" stroke-width="1" opacity="0.9"/>
    <path id="Path_287" data-name="Path 287" d="M1670.282-37.326c-119.038,123.458-333.7,349.348-348.683,520.644-4.981,56.938,74.181,88.968,79.947,145.712,7.007,68.948-2.318,131.365-27,181.413-27.448,55.664-74.185,95.14-129.9,133.437-42.225,29.037-88.676,55.252-136.06,81.018-205.495,111.743-483.734,189.134-703.665,263.718-91.4,30.994-181.79,94.954-231.561,178.569-27.658,46.466-42.457,84.246-52.574,119.937-9.347,32.977-8.491,68.342-3.125,111.709,13.47,108.879,60.341,250.477,150.25,338.259,47.578,46.451,83.479,57.4,136.921,83.995,206.094,102.569,434.848,222.782,647.682,354.975,132.159,82.086,276.637,163.36,415.529,243.427,141.261,81.431,156.348,268.528,213.344,404.641,22.088,52.751,156.7,16.336,132.406,74.144-13.348,31.766-34.188,62.466-59.263,85.522-49.233,45.155-115.357,74.624-180.534,93.582-65.058,18.893-131.705,30.579-198.639,38.508-154.242,18.513-309.929,13.145-463.794,14.946-124.855,1.61-330.629-54.315-455.675-41.132-70.377,7.565-141.181,17.537-205.361,41.654-41.023,15.416-86.964,39.141-124.032,76.5-17.575,17.712-30.255,39.049-38.341,63.211-34.773,103.909,3.725,255.12,44.024,356.472,19.841,49.9,41.237,95.88,62.786,133.686,88.267,155.037,237.172,270.452,407.146,347.27,202.711,92.078,432.73,77.716,651.066,84.078,107.357,3.128,212.613,9.884,315.792,40.367q8.661,2.55,17.215,5.4c43.161,14.4,89.967,42.292,95.329,87.032,4.878,40.651-25.336,72.587-52.192,101.578-6.977,7.553-14,15.45-20.873,23.664-25.636,30.533-48.65,65.63-53.365,105.4a127.23,127.23,0,0,0,2.137,42.486c9.016,41.172,37.573,77.295,71.956,103.236,25.683,19.4,54.529,34.3,83.663,47.767,22.659,10.456,45.675,20.276,68.175,30.815,40.956,19.187,80.49,40.931,122.765,56.687,99.505,37.086,209.087,39.058,315.545,37.358" fill="none" stroke="#fff" stroke-miterlimit="10" stroke-width="1" opacity="0.9"/>
    <path id="Path_288" data-name="Path 288" d="M1669.077-31.512C1549.953,95.351,1334.6,328.936,1327.364,502.7c-2.4,57.52,85.51,87.988,91.963,145.276,7.933,70.412-2.273,132.2-27.99,182.251-28.329,55.132-75.7,95.284-132.069,133.182-42.7,28.72-89.818,54.631-138.006,79.9-207.028,109.6-491.423,183.88-713.775,253.112-89.8,27.96-177.524,89.515-231.012,169.044-28.729,42.716-46.873,79.907-60.6,115.183-12.834,32.993-15.787,68.954-13.663,111.146,5.555,110.366,51.637,248.206,143.537,329.928,49.067,43.633,85.872,48.785,141.267,73.131,218.91,96.21,453.579,216.517,673.392,350.591,137.864,84.089,283.876,169.089,423.638,253.506,141.823,84.939,147.067,285.059,204.3,427.76,21.818,54.4,167.528,11.784,144.108,69.989a244.27,244.27,0,0,1-59.89,87.128c-49.844,45.915-117.41,75.731-183.7,94.639-66.27,18.875-134.029,30.4-202.177,37.918-156.527,17.466-315.037,10.879-471.625,12.509-125.1,1.42-337.907-59.033-462.942-45.559-71.663,7.841-143.651,18.33-208.52,43.4-42.827,16.552-88.226,41.417-125.078,79.681-17.607,18.281-30.156,40.188-38.145,64.861C46.6,3675.626,86.215,3826,129.944,3933.283c20.634,50.624,42.931,97.295,64.693,135.555,90.033,158.428,240.258,278.279,412.255,354.665,204.028,90.984,435.091,72.384,653.867,77.314,109.432,2.467,217.547,9.233,322.958,39.574q8.868,2.545,17.643,5.375c44.289,14.277,93.013,42.349,97.56,88.309,4.135,41.754-29.15,73.767-58.029,102.64-7.5,7.516-15,15.409-22.279,23.655-27.166,30.7-50.84,66.435-55.468,107.161a129.52,129.52,0,0,0,2.46,43.406c9.46,41.916,38.633,78.991,73.595,105.546,26.2,19.915,55.553,35.215,85.294,49.177,23.092,10.827,46.552,21.02,69.44,32.047,41.666,20.079,81.744,43.11,124.768,59.84,101.269,39.377,213.329,41.738,322.2,41.169" fill="none" stroke="#fff" stroke-miterlimit="10" stroke-width="1" opacity="0.9"/>
    <path id="Path_289" data-name="Path 289" d="M1667.871-25.7c-119.21,130.269-335.281,371.562-334.742,547.773.178,58.106,96.959,86.994,103.98,144.839,9.009,71.857-2.222,133.05-28.983,183.09-29.2,54.606-77.211,95.429-134.235,132.928-43.178,28.4-91.021,53.894-139.95,78.784-208.833,106.96-499.089,178.819-723.886,242.508-88.2,24.987-173.117,84.238-230.463,159.518a671.68,671.68,0,0,0-68.617,110.429c-16.341,32.959-23.192,69.5-24.2,110.584-2.739,111.712,42.953,245.884,136.824,321.6,50.568,40.786,88.24,40.1,145.614,62.266,231.694,89.508,472.526,209.885,699.1,346.207,143.706,85.858,290.923,175.148,431.746,263.586,142.191,88.782,137.829,301.583,195.259,450.877,21.558,56.043,178.379,7.235,155.809,65.835a239.125,239.125,0,0,1-60.517,88.733c-50.456,46.676-119.463,76.84-186.874,95.7-67.482,18.858-136.353,30.219-205.715,37.329-158.811,16.417-320.144,8.611-479.456,10.07-125.337,1.231-345.185-63.75-470.209-49.985-72.948,8.117-146.112,19.134-211.678,45.147-44.625,17.705-89.417,43.761-126.125,82.865-17.6,18.883-30.062,41.327-37.948,66.512-32.813,104.789,7.893,254.35,55.1,367.543,21.42,51.355,44.625,98.71,66.6,137.424,91.8,161.818,243.344,286.106,417.365,362.06,205.343,89.89,437.455,66.656,656.668,70.551,111.507,1.6,222.479,8.581,330.122,38.781q9.075,2.541,18.072,5.345c45.417,14.157,96.06,42.406,99.791,89.585,3.392,42.858-32.965,74.947-63.865,103.7-8.027,7.481-16.005,15.369-23.686,23.647-28.7,30.862-53.029,67.24-57.571,108.919a131.816,131.816,0,0,0,2.782,44.327c9.905,42.66,39.694,80.686,75.235,107.855,26.708,20.43,56.576,36.129,86.924,50.587,23.526,11.2,47.431,21.764,70.706,33.28,42.376,20.969,83,45.288,126.771,62.991,103.034,41.668,217.57,44.419,328.865,44.98" fill="none" stroke="#fff" stroke-miterlimit="10" stroke-width="1" opacity="0.9"/>
    <path id="Path_290" data-name="Path 290" d="M1666.666-19.886c-119.3,133.675-336.357,382.7-327.771,561.338,2.665,58.7,108.245,86.017,115.995,144.4,9.886,73.324-2.1,133.934-29.976,183.928-30,54.122-78.723,95.573-136.4,132.673-43.655,28.086-92.226,53.158-141.9,77.668-210.637,104.32-506.74,173.964-734,231.9-86.595,22.077-168.581,79.167-229.914,149.992a763.88,763.88,0,0,0-76.638,105.674c-19.855,32.878-30.691,69.957-34.737,110.022-11.4,112.842,34.282,243.509,130.11,313.266,52.078,37.91,90.575,31.358,149.96,51.4,244.413,82.494,491.165,203.757,724.813,341.823,149.356,87.943,297.97,181.207,439.853,273.666,142.56,92.625,128.631,318.1,186.218,473.995,21.31,57.688,189.25,2.688,167.509,61.68-12.883,34.959-34.346,65.431-61.143,90.339-51.068,47.436-121.515,77.947-190.044,96.753-68.694,18.842-138.677,30.04-209.253,36.741-161.1,15.368-325.252,6.344-487.287,7.631-125.578,1.041-352.463-68.468-477.476-54.411-74.234,8.392-148.565,19.948-214.837,46.894-46.413,18.871-90.7,46.012-127.171,86.048C84.942,3522.982,72.58,3546,64.834,3571.7c-31.99,105.185,9.9,254.006,60.646,373.08a1407,1407,0,0,0,68.508,139.292c93.562,165.209,246.428,293.933,422.474,369.456,206.658,88.795,439.808,61.457,659.468,63.786,113.578,1,227.413,7.93,337.288,37.989q9.281,2.535,18.5,5.315c46.544,14.037,99.107,42.464,102.022,90.862,2.65,43.961-36.78,76.127-69.7,104.764-8.551,7.444-17.005,15.328-25.092,23.638-30.226,31.027-55.218,68.044-59.674,110.676a134.114,134.114,0,0,0,3.1,45.248c10.349,43.4,40.755,82.382,76.874,110.165,27.22,20.945,57.6,37.043,88.555,52,23.959,11.568,48.309,22.508,71.971,34.513,43.086,21.86,84.251,47.466,128.774,66.143,104.8,43.959,221.812,47.1,335.524,48.791" fill="none" stroke="#fff" stroke-miterlimit="10" stroke-width="1" opacity="0.9"/>
    <path id="Path_291" data-name="Path 291" d="M1665.461-14.072c-119.383,137.08-336.985,393.846-320.8,574.9,5.3,59.3,119.531,85.04,128.011,143.967,31.016,215.532-134.139,307.948-313.373,393.735-212.442,101.682-514.39,169.332-744.107,221.3-126.144,28.536-238.921,136.1-314.024,241.386-91.182,127.831-53.345,328.537,78.121,414.394,53.594,35,92.873,22.564,154.308,40.538,422.558,123.629,833.556,374.877,1198.484,621.184,142.929,96.47,119.468,334.618,177.175,497.114,21.072,59.334,200.14-1.86,179.211,57.525-36.671,104.057-148.45,161.067-254.985,189.755-229,61.668-470.755,39.738-707.907,41.344-125.82.852-359.742-73.185-484.744-58.837-129.853,14.905-259.624,39.963-346.213,137.872-119.133,134.708,10.537,433.048,99.046,589.589,95.328,168.6,249.514,301.76,427.583,376.851,207.975,87.7,442.161,56.259,662.27,57.022,122.172.424,245.516,8.076,363.381,42.482,47.672,13.917,102.154,42.521,104.253,92.138,1.907,45.065-40.594,77.308-75.538,105.827-43.012,35.1-82.738,80.822-88.276,136.063-6.2,61.856,32.776,120.6,81.941,158.643s108.255,60.494,163.421,89.152c43.8,22.752,85.506,49.645,130.778,69.295,106.562,46.251,226.053,49.781,342.184,52.6" fill="none" stroke="#fff" stroke-miterlimit="10" stroke-width="1" opacity="0.9"/>
  </g>
</svg>
